%YAML 1.1
%TAG !u! tag:unity3d.com,2011:
--- !u!21 &2100000
Material:
  serializedVersion: 6
  m_ObjectHideFlags: 0
  m_CorrespondingSourceObject: {fileID: 0}
  m_PrefabInternal: {fileID: 0}
  m_Name: toon_unlit
  m_Shader: {fileID: 4800000, guid: 14b03c6ee719338408680fb886fd3143, type: 3}
  m_ShaderKeywords: 
  m_LightmapFlags: 4
  m_EnableInstancingVariants: 0
  m_DoubleSidedGI: 0
  m_CustomRenderQueue: -1
  stringTagMap: {}
  disabledShaderPasses: []
  m_SavedProperties:
    serializedVersion: 3
    m_TexEnvs:
    - _BumpMap:
        m_Texture: {fileID: 0}
        m_Scale: {x: 1, y: 1}
        m_Offset: {x: 0, y: 0}
    - _DetailAlbedoMap:
        m_Texture: {fileID: 0}
        m_Scale: {x: 1, y: 1}
        m_Offset: {x: 0, y: 0}
    - _DetailMask:
        m_Texture: {fileID: 0}
        m_Scale: {x: 1, y: 1}
        m_Offset: {x: 0, y: 0}
    - _DetailNormalMap:
        m_Texture: {fileID: 0}
        m_Scale: {x: 1, y: 1}
        m_Offset: {x: 0, y: 0}
    - _EmissionMap:
        m_Texture: {fileID: 0}
        m_Scale: {x: 1, y: 1}
        m_Offset: {x: 0, y: 0}
    - _HighlightTex:
        m_Texture: {fileID: 0}
        m_Scale: {x: 1, y: 1}
        m_Offset: {x: 0, y: 0}
    - _HighlightTexture:
        m_Texture: {fileID: 2800000, guid: 55cb20726a0259b46b10690562d50885, type: 3}
        m_Scale: {x: 1, y: 1}
        m_Offset: {x: 0, y: 0}
    - _HighlightmpleHighlight:
        m_Texture: {fileID: 0}
        m_Scale: {x: 1, y: 1}
        m_Offset: {x: 0, y: 0}
    - _MainTex:
        m_Texture: {fileID: 0}
        m_Scale: {x: 1, y: 1}
        m_Offset: {x: 0, y: 0}
    - _MetallicGlossMap:
        m_Texture: {fileID: 0}
        m_Scale: {x: 1, y: 1}
        m_Offset: {x: 0, y: 0}
    - _OcclusionMap:
        m_Texture: {fileID: 0}
        m_Scale: {x: 1, y: 1}
        m_Offset: {x: 0, y: 0}
    - _ParallaxMap:
        m_Texture: {fileID: 0}
        m_Scale: {x: 1, y: 1}
        m_Offset: {x: 0, y: 0}
    - _ShadowTexture:
        m_Texture: {fileID: 2800000, guid: d731b8e490fa7324fab8af68571ca1b3, type: 3}
        m_Scale: {x: 1, y: 1}
        m_Offset: {x: 0, y: 0}
    - _Texture:
        m_Texture: {fileID: 0}
        m_Scale: {x: 1, y: 1}
        m_Offset: {x: 0, y: 0}
    - _TextureSample0:
        m_Texture: {fileID: 2800000, guid: 55cb20726a0259b46b10690562d50885, type: 3}
        m_Scale: {x: 1, y: 1}
        m_Offset: {x: 0, y: 0}
    - _TextureSampleHighlight:
        m_Texture: {fileID: 2800000, guid: 55cb20726a0259b46b10690562d50885, type: 3}
        m_Scale: {x: 1, y: 1}
        m_Offset: {x: 0, y: 0}
    - _TextureSampleShadow:
        m_Texture: {fileID: 2800000, guid: d731b8e490fa7324fab8af68571ca1b3, type: 3}
        m_Scale: {x: 1, y: 1}
        m_Offset: {x: 0, y: 0}
    - _TextureSample_highlight:
        m_Texture: {fileID: 0}
        m_Scale: {x: 1, y: 1}
        m_Offset: {x: 0, y: 0}
    - _TextureSamplehighlight:
        m_Texture: {fileID: 0}
        m_Scale: {x: 1, y: 1}
        m_Offset: {x: 0, y: 0}
    - _Texture_Sample_highlight:
        m_Texture: {fileID: 2800000, guid: d731b8e490fa7324fab8af68571ca1b3, type: 3}
        m_Scale: {x: 1, y: 1}
        m_Offset: {x: 0, y: 0}
    m_Floats:
    - _BumpScale: 1
    - _Cutoff: 0.5
    - _DetailNormalMapScale: 1
    - _DstBlend: 0
    - _Float0: -0.89643717
    - _Float1: 6
    - _Float2: 20
    - _GlossMapScale: 1
    - _Glossiness: 0.5
    - _GlossyReflections: 1
    - _HighlightTiling: 30
    - _Highlight_Tiling: 20
    - _Metallic: 0
    - _Mode: 0
    - _OcclusionStrength: 1
    - _Parallax: 0.02
    - _RimLightSize: 4.7
    - _ShadowTiling: 6
    - _Shadowspread: -0.144
    - _SmoothnessTextureChannel: 0
    - _SpecularHighlights: 1
    - _SrcBlend: 1
    - _Ti: 20
    - _Til: 20
    - _Tilei: 20
    - _Tiling: 20
    - _UVSec: 0
    - _ZWrite: 1
    - _shadowiling: 6
    - _shadowti: 6
    - _shadowtiling: 6
    m_Colors:
    - _Color: {r: 1, g: 1, b: 1, a: 1}
    - _Color1: {r: 0.8213058, g: 0.8301887, b: 0.512994, a: 0}
    - _ColorHighlight: {r: 0.34668246, g: 0.8018868, b: 0.33664113, a: 0}
    - _ColorOverlayHighlight: {r: 0.81960785, g: 0.83137256, b: 0.5137255, a: 0}
    - _ColorOverlayShadow: {r: 0.3194197, g: 0.4911933, b: 0.6981132, a: 0}
    - _ColorShadow: {r: 0.04685831, g: 0.3679245, b: 0.06617248, a: 0}
    - _Color_overlay_highlight: {r: 0.3194197, g: 0.4911933, b: 0.6981132, a: 0}
    - _EmissionColor: {r: 0, g: 0, b: 0, a: 1}
    - _Highlight_Colour: {r: 0.8213058, g: 0.8301887, b: 0.512994, a: 0}
    - _Highlight_colour: {r: 0.8213058, g: 0.8301887, b: 0.512994, a: 0}
    - _RimHighlightColour: {r: 0.6981132, g: 0.6981132, b: 0.6981132, a: 0}
    - _RimShadowColor: {r: 0.9622642, g: 0.9622642, b: 0.9622642, a: 0}
    - _highlight: {r: 0.8213058, g: 0.8301887, b: 0.512994, a: 0}
